(footprint "TI_TPD6E05U06RVZR" (version 20221018) (generator pcbnew)
  (layer "F.Cu")
  (property "Sheetfile" "FMC-to-miniHDMI.kicad_sch")
  (property "Sheetname" "")
  (property "digikey#" "296-39349-1-ND")
  (property "info" "14V Clamp 2.5A (8/20µs) Ipp Tvs Diode Surface Mount 14-USON (3.50x1.35)")
  (property "manf" "Texas Instruments")
  (property "manf#" "TPD6E05U06RVZR")
  (attr smd)
  (fp_text reference "U2" (at -0.05 -2.75 -180) (layer "F.Fab")
      (effects (font (size 0.75 0.75) (thickness 0.15)))
    (tstamp 8c966b35-ea63-4c73-b1df-98219d1898d1)
  )
  (fp_text value "TPD6E05U06RVZR" (at -5.47 -4.156 -180) (layer "F.Fab")
      (effects (font (size 1 1) (thickness 0.15)))
    (tstamp 9cad743e-7ecc-4b2c-8247-ba42304970c5)
  )
  (fp_line (start -0.675 -1.75) (end 0.675 -1.75)
    (stroke (width 0.127) (type solid)) (layer "F.SilkS") (tstamp 62fb4a88-18d9-40e0-8c89-a0d95b8d7670))
  (fp_line (start -0.675 1.75) (end 0.675 1.75)
    (stroke (width 0.127) (type solid)) (layer "F.SilkS") (tstamp 9368b1de-3431-498c-9264-daff25f1c7e6))
  (fp_circle (center -1.1 -2) (end -1 -2.1)
    (stroke (width 0.12) (type solid)) (fill none) (layer "F.SilkS") (tstamp 7f576722-7f79-47ab-b3f1-d0887b801d93))
  (fp_line (start -1.29 -2) (end 1.29 -2)
    (stroke (width 0.05) (type solid)) (layer "F.CrtYd") (tstamp d1b7efca-33bd-4569-b0ea-54cf7235146b))
  (fp_line (start -1.29 2) (end -1.29 -2)
    (stroke (width 0.05) (type solid)) (layer "F.CrtYd") (tstamp af1c544b-6548-4e47-b4c2-0d1544421684))
  (fp_line (start 1.29 -2) (end 1.29 2)
    (stroke (width 0.05) (type solid)) (layer "F.CrtYd") (tstamp e7d9a247-4090-4cd3-b3d7-41c331a0cb6c))
  (fp_line (start 1.29 2) (end -1.29 2)
    (stroke (width 0.05) (type solid)) (layer "F.CrtYd") (tstamp c38f6052-2cf2-42db-98cd-e1b9824daddb))
  (fp_line (start -0.675 -1.75) (end 0.675 -1.75)
    (stroke (width 0.127) (type solid)) (layer "F.Fab") (tstamp 9316eae1-7d5e-45d2-aa45-f3d20ff948ce))
  (fp_line (start -0.675 1.75) (end -0.675 -1.75)
    (stroke (width 0.127) (type solid)) (layer "F.Fab") (tstamp 02247c6b-6985-4c71-a34b-8eace8ff9856))
  (fp_line (start 0.675 -1.75) (end 0.675 1.75)
    (stroke (width 0.127) (type solid)) (layer "F.Fab") (tstamp 76e004a8-a8fa-4920-bf61-e48f7b086924))
  (fp_line (start 0.675 1.75) (end -0.675 1.75)
    (stroke (width 0.127) (type solid)) (layer "F.Fab") (tstamp eef8569f-38c1-4b50-8b16-0e941b00fc9c))
  (fp_circle (center -0.9 -1.5) (end -0.85 -1.5)
    (stroke (width 0.1) (type solid)) (fill none) (layer "F.Fab") (tstamp 15b6386c-9392-4f08-be6b-b4b5e0a59bae))
  (pad "1" smd rect (at -0.67 -1.5) (size 0.74 0.22) (layers "F.Cu" "F.Paste" "F.Mask") (tstamp 7dd40d7a-d3d2-44f1-8483-169f23a3221f))
  (pad "2" smd rect (at -0.67 -1) (size 0.74 0.22) (layers "F.Cu" "F.Paste" "F.Mask") (tstamp 5727749d-92d2-4716-93e1-9970215189e7))
  (pad "3" smd rect (at -0.67 -0.5) (size 0.74 0.22) (layers "F.Cu" "F.Paste" "F.Mask") (tstamp 9f6b0487-dabf-45fd-92ec-a03f2a53ec09))
  (pad "4" smd rect (at -0.67 0) (size 0.74 0.22) (layers "F.Cu" "F.Paste" "F.Mask") (tstamp f374cdb8-3992-40db-beb7-8ea0624cae7e))
  (pad "5" smd rect (at -0.67 0.5) (size 0.74 0.22) (layers "F.Cu" "F.Paste" "F.Mask") (tstamp 43e30c47-ec6a-4fe3-9ce5-dd8dab958cee))
  (pad "6" smd rect (at -0.67 1) (size 0.74 0.22) (layers "F.Cu" "F.Paste" "F.Mask") (tstamp 21e24b25-a39e-438a-9e43-7bae3198e2b6))
  (pad "7" smd rect (at -0.67 1.5) (size 0.74 0.22) (layers "F.Cu" "F.Paste" "F.Mask") (tstamp c2eba45a-333d-4f18-9024-1d9788461274))
  (pad "8" smd rect (at 0.67 1.5) (size 0.74 0.22) (layers "F.Cu" "F.Paste" "F.Mask") (tstamp 90ce6d86-7357-456c-a8d9-37325cc1c51f))
  (pad "9" smd rect (at 0.67 1) (size 0.74 0.22) (layers "F.Cu" "F.Paste" "F.Mask") (tstamp 78f5fa94-e01e-4922-a3fc-07a3808b4d19))
  (pad "10" smd rect (at 0.67 0.5) (size 0.74 0.22) (layers "F.Cu" "F.Paste" "F.Mask") (tstamp 1c1a42bb-8011-4e49-b793-8db55ecf302f))
  (pad "11" smd rect (at 0.67 0) (size 0.74 0.22) (layers "F.Cu" "F.Paste" "F.Mask") (tstamp bc294fcc-e850-41ca-8a90-95e27b26ce3a))
  (pad "12" smd rect (at 0.67 -0.5) (size 0.74 0.22) (layers "F.Cu" "F.Paste" "F.Mask") (tstamp 964f11c5-95fb-4350-b681-f98ce6b8224d))
  (pad "13" smd rect (at 0.67 -1) (size 0.74 0.22) (layers "F.Cu" "F.Paste" "F.Mask") (tstamp 80b838ce-ff5c-4b4e-9e41-a558ca03c13d))
  (pad "14" smd rect (at 0.67 -1.5) (size 0.74 0.22) (layers "F.Cu" "F.Paste" "F.Mask") (tstamp 30cced16-3986-47a7-bfc4-d4e0b3f36133))
  (model "${KICAD_USER_LIBRARY}/packages3d/NXP_DFN2510A-N10.wrl"
    (offset (xyz 0 0 0))
    (scale (xyz 1.3 1.3 1))
    (rotate (xyz 0 0 0))
  )
)
